SET(set = "-?[1-9][0-9]*", tmin = 1, tmax = 100, nmin = 1, nmax = 1000)

INT(tmin, tmax, t) NEWLINE
REP(t)
    NEWLINE
    REGEX(set) NEWLINE
    WHILEI(n, nmin - 1 <= n && n <= nmax - 2 && !MATCH("\n"))
        IF(!ISEOF)
            REGEX(set) NEWLINE
        END
    END
END
